[{"username":"registerBuser@test.com","password":"registerBuser", "registrationCategory": "Distributor","selectedSegments": ["Coffee"]},
  {"businessUnitName":"BangulureBranch",
"email":"bangulure@branch.com",
"phoneNumber":"1234567890",
"addressLine":"526,JeevanBheema Nager",
"city":"Bengulure",
"state":"Karnataka",
"country":"India",
"pinCode":"123456"},
  {"businessUnitName":"AnantapurBranch",
    "email":"anantapur@branch.com",
    "phoneNumber":["1234567890","5487856566","5454545454"],
    "addressLine":"526,JeevanBheema Nager",
    "city":"Bengulure",
    "state":"Karnataka",
    "country":"India",
    "pinCode":"123456"},
  {"businessUnitName":"ChittoorBranch",
    "email":["chtr@branch.com","sefs@branch.com","dsfesa@branch.com"],
    "phoneNumber":"1234567890",
    "addressLine":"526,JeevanBheema Nager",
    "city":"Bengulure",
    "state":"Karnataka",
    "country":"India",
    "pinCode":"123456"},
  {"businessUnitName":"TirupatiBranch",
    "email":"bangulure@branch.com",
    "phoneNumber":"1234567890",
    "address":[
      {"addressLine":"526,JeevanBheema Nager",
    "city":"Bengulure",
    "state":"Karnataka",
    "country":"India",
    "pinCode":"123456"},
      {"addressLine":"528,JeevanBheema Nager",
        "city":"Bengulure",
        "state":"Karnataka",
        "country":"India",
        "pinCode":"123456"}]}]
