<?xml version="1.0" encoding="utf-8"?>
<!-- Generator: Adobe Illustrator 22.1.0, SVG Export Plug-In . SVG Version: 6.00 Build 0)  -->
<svg version="1.1" id="Layer_1" xmlns="http://www.w3.org/2000/svg" xmlns:xlink="http://www.w3.org/1999/xlink" x="0px" y="0px"
	 viewBox="0 0 200 200" style="enable-background:new 0 0 200 200;" xml:space="preserve">
<g>
	<path style="fill:#299E26;" d="M104.2,200c-0.7,0-1.4-0.2-2-0.5l-65.7-37.2c-1.3-0.7-2-2-2-3.5V117c0-2.2,1.8-4,4-4s4,1.8,4,4v39.3
		l61.7,35l61.7-35v-39.1c0-2.2,1.8-4,4-4s4,1.8,4,4v41.5c0,1.4-0.8,2.8-2,3.5l-65.7,37.2C105.5,199.8,104.9,200,104.2,200z"/>
</g>
<g>
	<path style="fill:#299E26;" d="M38.5,84.6c-1.4,0-2.5-1.1-2.5-2.5v-1.6c0-0.9,0.5-1.7,1.2-2.2l65.7-38.4c0.8-0.5,1.7-0.5,2.5,0
		l65.7,38.4c0.8,0.4,1.2,1.3,1.2,2.2v1.3c0,1.4-1.1,2.5-2.5,2.5c-1.4,0-2.5-1.1-2.5-2.4l-63.2-37L41,81.9v0.1
		C41,83.5,39.8,84.6,38.5,84.6z"/>
</g>
<g>
	<path style="fill:#299E26;" d="M104.2,116.3c-0.4,0-0.8-0.1-1.1-0.3L37.3,82.7c-1.2-0.6-1.7-2.1-1.1-3.4c0.6-1.2,2.1-1.7,3.4-1.1
		l65.7,33.3c1.2,0.6,1.7,2.1,1.1,3.4C106,115.8,105.1,116.3,104.2,116.3z"/>
</g>
<g>
	<path style="fill:#299E26;" d="M104.2,116.3c-0.9,0-1.8-0.5-2.2-1.4c-0.6-1.2-0.1-2.7,1.1-3.4l65.7-33.3c1.2-0.6,2.7-0.1,3.4,1.1
		s0.1,2.7-1.1,3.4L105.3,116C105,116.2,104.6,116.3,104.2,116.3z"/>
</g>
<g>
	<path style="fill:#299E26;" d="M104.2,199.8c-2.2,0-4-1.8-4-4v-82c0-2.2,1.8-4,4-4s4,1.8,4,4v82C108.2,198,106.4,199.8,104.2,199.8
		z"/>
</g>
<g>
	<path style="fill:#299E26;" d="M118,144.2c-0.4,0-0.9-0.1-1.3-0.2c-1-0.3-1.8-1.1-2.3-2l-13-26.6c-1-2-0.2-4.3,1.8-5.3l64.6-32.3
		c1-0.5,2.1-0.6,3.1-0.2c1,0.3,1.8,1.1,2.3,2l13,26.6c1,2,0.2,4.3-1.8,5.3l-64.6,32.3C119.3,144.1,118.6,144.2,118,144.2z
		 M110.3,115.4l9.5,19.5l57.5-28.8l-9.5-19.4L110.3,115.4z"/>
</g>
<g>
	<path style="fill:#299E26;" d="M39,84.5c-0.7,0-1.3-0.2-1.9-0.5L15.6,72.2c-1.3-0.7-2.1-2-2.1-3.4c0-1.4,0.7-2.8,2-3.5l64-37.6
		c1.2-0.7,2.6-0.7,3.8-0.1l22.8,11.1c1.3,0.6,2.2,2,2.2,3.4s-0.7,2.9-2,3.6L41,84C40.4,84.3,39.7,84.5,39,84.5z M25.7,68.6l13.2,7.3
		l57-33.3l-14.1-6.9L25.7,68.6z"/>
</g>
<g>
	<path style="fill:#299E26;" d="M91.3,144.5c-0.6,0-1.2-0.1-1.8-0.4l-66.3-32.9c-2-1-2.8-3.3-1.8-5.3l12.9-26.7c0.5-1,1.3-1.7,2.3-2
		c1-0.3,2.1-0.3,3.1,0.2l66.4,32.9c2,1,2.8,3.3,1.8,5.3l-12.9,26.7c-0.5,1-1.3,1.7-2.3,2C92.2,144.5,91.7,144.5,91.3,144.5z
		 M30.3,105.8l59.2,29.3l9.4-19.5L39.7,86.3L30.3,105.8z"/>
</g>
<g>
	<path style="fill:#299E26;" d="M169.4,84.8c-0.7,0-1.4-0.2-2-0.6L102.5,46c-1.2-0.7-2-2.1-2-3.5c0-1.4,0.8-2.7,2-3.4l21.9-12.4
		c1.2-0.7,2.6-0.7,3.8-0.1l65.4,34.8c1.2,0.7,2,1.9,2.1,3.3c0.1,1.4-0.6,2.7-1.7,3.5L171.7,84C171,84.5,170.2,84.8,169.4,84.8z
		 M112.5,42.7L169.2,76l15-10.6l-57.8-30.7L112.5,42.7z"/>
</g>
<g>
	<g>
		<path style="fill:#299E26;" d="M149.3,47.7c0,25.5-19.7,46.2-44.1,46.2c-24.3,0-44.1-20.7-44.1-46.2c0-25.5,19.7-46.2,44.1-46.2
			C129.5,1.5,149.3,22.2,149.3,47.7z"/>
		<path style="fill:#FFFFFF;" d="M105.2,95.3c-25.1,0-45.6-21.4-45.6-47.7C59.6,21.4,80.1,0,105.2,0s45.6,21.4,45.6,47.7
			C150.8,73.9,130.3,95.3,105.2,95.3z M105.2,3C81.7,3,62.6,23,62.6,47.7c0,24.6,19.1,44.7,42.6,44.7s42.6-20,42.6-44.7
			C147.8,23,128.7,3,105.2,3z"/>
	</g>
	<g>
		<g>
			<path style="fill:#FFFFFF;" d="M109.2,72c0,2.3-1.8,4.1-3.9,4.1s-3.9-1.8-3.9-4.1c0-2.3,1.8-4.1,3.9-4.1S109.2,69.7,109.2,72z"/>
		</g>
		<g>
			<path style="fill:#FFFFFF;" d="M107.9,55.4c0,1.5-1.2,2.6-2.6,2.6l0,0c-1.4,0-2.6-1.2-2.6-2.6c0,0-4.8-23.4-2.9-28.7
				c0.5-1.4,2.5-2.9,4.3-3c0,0,2.5,0,3.3,0.1c1.7,0.2,3.2,1.8,3.6,3.2C112.7,32.6,107.9,55.4,107.9,55.4z"/>
		</g>
	</g>
</g>
</svg>
